<?xml version="1.0" encoding="UTF-8"?>
<gexf xmlns="http://www.gexf.net/1.1draft" version="1.1" xmlns:viz="http://www.gexf.net/1.1draft/viz" xmlns:xsi="http://www.w3.org/2001/XMLSchema-instance" xsi:schemaLocation="http://www.gexf.net/1.1draft http://www.gexf.net/1.1draft/gexf.xsd">
  <meta lastmodifieddate="2011-09-05">
    <creator>Gephi 0.8</creator>
    <description></description>
  </meta>
  <graph defaultedgetype="undirected" timeformat="double" mode="dynamic">
    <attributes class="node" mode="static">
      <attribute id="modularity_class" title="Modularity Class" type="integer">
        <default>0</default>
      </attribute>
    </attributes>
    <nodes>
      <node id="0.0" label="Myriel">
        <attvalues>
          <attvalue for="modularity_class" value="1"></attvalue>
        </attvalues>
        <viz:size value="21.37143"></viz:size>
        <viz:position x="-382.45764" y="147.4245"></viz:position>
        <viz:color r="168" g="168" b="29"></viz:color>
      </node>
      <node id="1.0" label="Napoleon">
        <attvalues>
          <attvalue for="modularity_class" value="1"></attvalue>
        </attvalues>
        <viz:size value="8.0"></viz:size>
        <viz:position x="-486.80704" y="177.66797"></viz:position>
        <viz:color r="168" g="168" b="29"></viz:color>
      </node>
      <node id="2.0" label="MlleBaptistine">
        <attvalues>
          <attvalue for="modularity_class" value="0"></attvalue>
        </attvalues>
        <viz:size value="10.971429"></viz:size>
        <viz:position x="-300.8923" y="69.90642"></viz:position>
        <viz:color r="29" g="168" b="168"></viz:color>
      </node>
      <node id="3.0" label="MmeMagloire">
        <attvalues>
          <attvalue for="modularity_class" value="0"></attvalue>
        </attvalues>
        <viz:size value="10.971429"></viz:size>
        <viz:position x="-296.52637" y="105.850845"></viz:position>
        <viz:color r="29" g="168" b="168"></viz:color>
      </node>
      <node id="4.0" label="CountessDeLo">
        <attvalues>
          <attvalue for="modularity_class" value="1"></attvalue>
        </attvalues>
        <viz:size value="8.0"></viz:size>
        <viz:position x="-452.43207" y="178.6315"></viz:position>
        <viz:color r="168" g="168" b="29"></viz:color>
      </node>
      <node id="5.0" label="Geborand">
        <attvalues>
          <attvalue for="modularity_class" value="1"></attvalue>
        </attvalues>
        <viz:size value="8.0"></viz:size>
        <viz:position x="-466.72003" y="146.20956"></viz:position>
        <viz:color r="168" g="168" b="29"></viz:color>
      </node>
      <node id="6.0" label="Champtercier">
        <attvalues>
          <attvalue for="modularity_class" value="1"></attvalue>
        </attvalues>
        <viz:size value="8.0"></viz:size>
        <viz:position x="-445.21082" y="233.08757"></viz:position>
        <viz:color r="168" g="168" b="29"></viz:color>
      </node>
      <node id="7.0" label="Cravatte">
        <attvalues>
          <attvalue for="modularity_class" value="1"></attvalue>
        </attvalues>
        <viz:size value="8.0"></viz:size>
        <viz:position x="-470.63034" y="210.29977"></viz:position>
        <viz:color r="168" g="168" b="29"></viz:color>
      </node>
      <node id="8.0" label="Count">
        <attvalues>
          <attvalue for="modularity_class" value="1"></attvalue>
        </attvalues>
        <viz:size value="8.0"></viz:size>
        <viz:position x="-427.5447" y="200.23619"></viz:position>
        <viz:color r="168" g="168" b="29"></viz:color>
      </node>
      <node id="9.0" label="OldMan">
        <attvalues>
          <attvalue for="modularity_class" value="1"></attvalue>
        </attvalues>
        <viz:size value="8.0"></viz:size>
        <viz:position x="-409.16498" y="230.62962"></viz:position>
        <viz:color r="168" g="168" b="29"></viz:color>
      </node>
      <node id="10.0" label="Labarre">
        <attvalues>
          <attvalue for="modularity_class" value="0"></attvalue>
        </attvalues>
        <viz:size value="8.0"></viz:size>
        <viz:position x="-154.42316" y="-165.54617"></viz:position>
        <viz:color r="29" g="168" b="168"></viz:color>
      </node>
      <node id="11.0" label="Valjean">
        <attvalues>
          <attvalue for="modularity_class" value="0"></attvalue>
        </attvalues>
        <viz:size value="60.0"></viz:size>
        <viz:position x="-65.40625" y="-73.33225"></viz:position>
        <viz:color r="29" g="168" b="168"></viz:color>
      </node>
      <node id="12.0" label="Marguerite">
        <attvalues>
          <attvalue for="modularity_class" value="2"></attvalue>
        </attvalues>
        <viz:size value="9.485714"></viz:size>
        <viz:position x="-225.38951" y="-115.11353"></viz:position>
        <viz:color r="29" g="29" b="168"></viz:color>
      </node>
      <node id="13.0" label="MmeDeR">
        <attvalues>
          <attvalue for="modularity_class" value="0"></attvalue>
        </attvalues>
        <viz:size value="8.0"></viz:size>
        <viz:position x="-181.01697" y="-25.592203"></viz:position>
        <viz:color r="29" g="168" b="168"></viz:color>
      </node>
      <node id="14.0" label="Isabeau">
        <attvalues>
          <attvalue for="modularity_class" value="0"></attvalue>
        </attvalues>
        <viz:size value="8.0"></viz:size>
        <viz:position x="-60.756447" y="-206.3948"></viz:position>
        <viz:color r="29" g="168" b="168"></viz:color>
      </node>
      <node id="15.0" label="Gervais">
        <attvalues>
          <attvalue for="modularity_class" value="0"></attvalue>
        </attvalues>
        <viz:size value="8.0"></viz:size>
        <viz:position x="-177.64394" y="-134.1362"></viz:position>
        <viz:color r="29" g="168" b="168"></viz:color>
      </node>
      <node id="16.0" label="Tholomyes">
        <attvalues>
          <attvalue for="modularity_class" value="2"></attvalue>
        </attvalues>
        <viz:size value="19.885715"></viz:size>
        <viz:position x="-358.4174" y="-204.1585"></viz:position>
        <viz:color r="29" g="29" b="168"></viz:color>
      </node>
      <node id="17.0" label="Listolier">
        <attvalues>
          <attvalue for="modularity_class" value="2"></attvalue>
        </attvalues>
        <viz:size value="16.914286"></viz:size>
        <viz:position x="-428.61713" y="-250.21584"></viz:position>
        <viz:color r="29" g="29" b="168"></viz:color>
      </node>
      <node id="18.0" label="Fameuil">
        <attvalues>
          <attvalue for="modularity_class" value="2"></attvalue>
        </attvalues>
        <viz:size value="16.914286"></viz:size>
        <viz:position x="-486.4522" y="-262.19174"></viz:position>
        <viz:color r="29" g="29" b="168"></viz:color>
      </node>
      <node id="19.0" label="Blacheville">
        <attvalues>
          <attvalue for="modularity_class" value="2"></attvalue>
        </attvalues>
        <viz:size value="16.914286"></viz:size>
        <viz:position x="-520.53906" y="-212.79793"></viz:position>
        <viz:color r="29" g="29" b="168"></viz:color>
      </node>
      <node id="20.0" label="Favourite">
        <attvalues>
          <attvalue for="modularity_class" value="2"></attvalue>
        </attvalues>
        <viz:size value="16.914286"></viz:size>
        <viz:position x="-497.31976" y="-157.24652"></viz:position>
        <viz:color r="29" g="29" b="168"></viz:color>
      </node>
      <node id="21.0" label="Dahlia">
        <attvalues>
          <attvalue for="modularity_class" value="2"></attvalue>
        </attvalues>
        <viz:size value="16.914286"></viz:size>
        <viz:position x="-437.71173" y="-159.96695"></viz:position>
        <viz:color r="29" g="29" b="168"></viz:color>
      </node>
      <node id="22.0" label="Zephine">
        <attvalues>
          <attvalue for="modularity_class" value="2"></attvalue>
        </attvalues>
        <viz:size value="16.914286"></viz:size>
        <viz:position x="-463.14917" y="-208.0067"></viz:position>
        <viz:color r="29" g="29" b="168"></viz:color>
      </node>
      <node id="23.0" label="Fantine">
        <attvalues>
          <attvalue for="modularity_class" value="2"></attvalue>
        </attvalues>
        <viz:size value="28.800001"></viz:size>
        <viz:position x="-306.4251" y="-116.0998"></viz:position>
        <viz:color r="29" g="29" b="168"></viz:color>
      </node>
      <node id="24.0" label="MmeThenardier">
        <attvalues>
          <attvalue for="modularity_class" value="5"></attvalue>
        </attvalues>
        <viz:size value="22.857143"></viz:size>
        <viz:position x="-37.410343" y="109.98889"></viz:position>
        <viz:color r="168" g="29" b="29"></viz:color>
      </node>
      <node id="25.0" label="Thenardier">
        <attvalues>
          <attvalue for="modularity_class" value="5"></attvalue>
        </attvalues>
        <viz:size value="30.285715"></viz:size>
        <viz:position x="52.511734" y="121.51915"></viz:position>
        <viz:color r="168" g="29" b="29"></viz:color>
      </node>
      <node id="26.0" label="Cosette">
        <attvalues>
          <attvalue for="modularity_class" value="3"></attvalue>
        </attvalues>
        <viz:size value="22.857143"></viz:size>
        <viz:position x="74.91254" y="-93.08046"></viz:position>
        <viz:color r="29" g="168" b="29"></viz:color>
      </node>
      <node id="27.0" label="Javert">
        <attvalues>
          <attvalue for="modularity_class" value="5"></attvalue>
        </attvalues>
        <viz:size value="31.77143"></viz:size>
        <viz:position x="39.61812" y="21.239464"></viz:position>
        <viz:color r="168" g="29" b="29"></viz:color>
      </node>
      <node id="28.0" label="Fauchelevent">
        <attvalues>
          <attvalue for="modularity_class" value="0"></attvalue>
        </attvalues>
        <viz:size value="12.457143"></viz:size>
        <viz:position x="-146.89166" y="51.70558"></viz:position>
        <viz:color r="29" g="168" b="168"></viz:color>
      </node>
      <node id="29.0" label="Bamatabois">
        <attvalues>
          <attvalue for="modularity_class" value="0"></attvalue>
        </attvalues>
        <viz:size value="18.400002"></viz:size>
        <viz:position x="-161.71263" y="-244.36522"></viz:position>
        <viz:color r="29" g="168" b="168"></viz:color>
      </node>
      <node id="30.0" label="Perpetue">
        <attvalues>
          <attvalue for="modularity_class" value="2"></attvalue>
        </attvalues>
        <viz:size value="9.485714"></viz:size>
        <viz:position x="-323.50797" y="-33.175602"></viz:position>
        <viz:color r="29" g="29" b="168"></viz:color>
      </node>
      <node id="31.0" label="Simplice">
        <attvalues>
          <attvalue for="modularity_class" value="2"></attvalue>
        </attvalues>
        <viz:size value="12.457143"></viz:size>
        <viz:position x="-223.60526" y="-38.13833"></viz:position>
        <viz:color r="29" g="29" b="168"></viz:color>
      </node>
      <node id="32.0" label="Scaufflaire">
        <attvalues>
          <attvalue for="modularity_class" value="0"></attvalue>
        </attvalues>
        <viz:size value="8.0"></viz:size>
        <viz:position x="-104.744385" y="-194.03554"></viz:position>
        <viz:color r="29" g="168" b="168"></viz:color>
      </node>
      <node id="33.0" label="Woman1">
        <attvalues>
          <attvalue for="modularity_class" value="0"></attvalue>
        </attvalues>
        <viz:size value="9.485714"></viz:size>
        <viz:position x="-82.73265" y="48.582447"></viz:position>
        <viz:color r="29" g="168" b="168"></viz:color>
      </node>
      <node id="34.0" label="Judge">
        <attvalues>
          <attvalue for="modularity_class" value="0"></attvalue>
        </attvalues>
        <viz:size value="15.428572"></viz:size>
        <viz:position x="-95.47301" y="-300.5016"></viz:position>
        <viz:color r="29" g="168" b="168"></viz:color>
      </node>
      <node id="35.0" label="Champmathieu">
        <attvalues>
          <attvalue for="modularity_class" value="0"></attvalue>
        </attvalues>
        <viz:size value="15.428572"></viz:size>
        <viz:position x="-147.12245" y="-307.7019"></viz:position>
        <viz:color r="29" g="168" b="168"></viz:color>
      </node>
      <node id="36.0" label="Brevet">
        <attvalues>
          <attvalue for="modularity_class" value="0"></attvalue>
        </attvalues>
        <viz:size value="15.428572"></viz:size>
        <viz:position x="-108.39051" y="-356.67386"></viz:position>
        <viz:color r="29" g="168" b="168"></viz:color>
      </node>
      <node id="37.0" label="Chenildieu">
        <attvalues>
          <attvalue for="modularity_class" value="0"></attvalue>
        </attvalues>
        <viz:size value="15.428572"></viz:size>
        <viz:position x="-163.92479" y="-364.26483"></viz:position>
        <viz:color r="29" g="168" b="168"></viz:color>
      </node>
      <node id="38.0" label="Cochepaille">
        <attvalues>
          <attvalue for="modularity_class" value="0"></attvalue>
        </attvalues>
        <viz:size value="15.428572"></viz:size>
        <viz:position x="-198.80821" y="-318.2402"></viz:position>
        <viz:color r="29" g="168" b="168"></viz:color>
      </node>
      <node id="39.0" label="Pontmercy">
        <attvalues>
          <attvalue for="modularity_class" value="3"></attvalue>
        </attvalues>
        <viz:size value="10.971429"></viz:size>
        <viz:position x="209.20668" y="-121.83152"></viz:position>
        <viz:color r="29" g="168" b="29"></viz:color>
      </node>
      <node id="40.0" label="Boulatruelle">
        <attvalues>
          <attvalue for="modularity_class" value="5"></attvalue>
        </attvalues>
        <viz:size value="8.0"></viz:size>
        <viz:position x="-45.33508" y="216.85666"></viz:position>
        <viz:color r="168" g="29" b="29"></viz:color>
      </node>
      <node id="41.0" label="Eponine">
        <attvalues>
          <attvalue for="modularity_class" value="5"></attvalue>
        </attvalues>
        <viz:size value="22.857143"></viz:size>
        <viz:position x="198.15625" y="199.41757"></viz:position>
        <viz:color r="168" g="29" b="29"></viz:color>
      </node>
      <node id="42.0" label="Anzelma">
        <attvalues>
          <attvalue for="modularity_class" value="5"></attvalue>
        </attvalues>
        <viz:size value="10.971429"></viz:size>
        <viz:position x="-0.8991498" y="241.39294"></viz:position>
        <viz:color r="168" g="29" b="29"></viz:color>
      </node>
      <node id="43.0" label="Woman2">
        <attvalues>
          <attvalue for="modularity_class" value="3"></attvalue>
        </attvalues>
        <viz:size value="10.971429"></viz:size>
        <viz:position x="19.071276" y="-162.25089"></viz:position>
        <viz:color r="29" g="168" b="29"></viz:color>
      </node>
      <node id="44.0" label="MotherInnocent">
        <attvalues>
          <attvalue for="modularity_class" value="0"></attvalue>
        </attvalues>
        <viz:size value="9.485714"></viz:size>
        <viz:position x="-187.64268" y="30.64477"></viz:position>
        <viz:color r="29" g="168" b="168"></viz:color>
      </node>
      <node id="45.0" label="Gribier">
        <attvalues>
          <attvalue for="modularity_class" value="0"></attvalue>
        </attvalues>
        <viz:size value="8.0"></viz:size>
        <viz:position x="-204.3506" y="112.83919"></viz:position>
        <viz:color r="29" g="168" b="168"></viz:color>
      </node>
      <node id="46.0" label="Jondrette">
        <attvalues>
          <attvalue for="modularity_class" value="4"></attvalue>
        </attvalues>
        <viz:size value="8.0"></viz:size>
        <viz:position x="457.79785" y="426.53217"></viz:position>
        <viz:color r="168" g="29" b="168"></viz:color>
      </node>
      <node id="47.0" label="MmeBurgon">
        <attvalues>
          <attvalue for="modularity_class" value="4"></attvalue>
        </attvalues>
        <viz:size value="9.485714"></viz:size>
        <viz:position x="425.1323" y="352.45993"></viz:position>
        <viz:color r="168" g="29" b="168"></viz:color>
      </node>
      <node id="48.0" label="Gavroche">
        <attvalues>
          <attvalue for="modularity_class" value="4"></attvalue>
        </attvalues>
        <viz:size value="39.2"></viz:size>
        <viz:position x="337.5744" y="158.33633"></viz:position>
        <viz:color r="168" g="29" b="168"></viz:color>
      </node>
      <node id="49.0" label="Gillenormand">
        <attvalues>
          <attvalue for="modularity_class" value="3"></attvalue>
        </attvalues>
        <viz:size value="16.914286"></viz:size>
        <viz:position x="156.16846" y="-139.40936"></viz:position>
        <viz:color r="29" g="168" b="29"></viz:color>
      </node>
      <node id="50.0" label="Magnon">
        <attvalues>
          <attvalue for="modularity_class" value="3"></attvalue>
        </attvalues>
        <viz:size value="9.485714"></viz:size>
        <viz:position x="111.11085" y="-26.366472"></viz:position>
        <viz:color r="29" g="168" b="29"></viz:color>
      </node>
      <node id="51.0" label="MlleGillenormand">
        <attvalues>
          <attvalue for="modularity_class" value="3"></attvalue>
        </attvalues>
        <viz:size value="16.914286"></viz:size>
        <viz:position x="147.9487" y="-208.50995"></viz:position>
        <viz:color r="29" g="168" b="29"></viz:color>
      </node>
      <node id="52.0" label="MmePontmercy">
        <attvalues>
          <attvalue for="modularity_class" value="3"></attvalue>
        </attvalues>
        <viz:size value="9.485714"></viz:size>
        <viz:position x="217.95943" y="-251.8726"></viz:position>
        <viz:color r="29" g="168" b="29"></viz:color>
      </node>
      <node id="53.0" label="MlleVaubois">
        <attvalues>
          <attvalue for="modularity_class" value="3"></attvalue>
        </attvalues>
        <viz:size value="8.0"></viz:size>
        <viz:position x="170.24382" y="-309.85574"></viz:position>
        <viz:color r="29" g="168" b="29"></viz:color>
      </node>
      <node id="54.0" label="LtGillenormand">
        <attvalues>
          <attvalue for="modularity_class" value="3"></attvalue>
        </attvalues>
        <viz:size value="12.457143"></viz:size>
        <viz:position x="203.94662" y="-188.83391"></viz:position>
        <viz:color r="29" g="168" b="29"></viz:color>
      </node>
      <node id="55.0" label="Marius">
        <attvalues>
          <attvalue for="modularity_class" value="3"></attvalue>
        </attvalues>
        <viz:size value="34.74286"></viz:size>
        <viz:position x="234.33221" y="-38.072105"></viz:position>
        <viz:color r="29" g="168" b="29"></viz:color>
      </node>
      <node id="56.0" label="BaronessT">
        <attvalues>
          <attvalue for="modularity_class" value="3"></attvalue>
        </attvalues>
        <viz:size value="9.485714"></viz:size>
        <viz:position x="254.71332" y="-160.49254"></viz:position>
        <viz:color r="29" g="168" b="29"></viz:color>
      </node>
      <node id="57.0" label="Mabeuf">
        <attvalues>
          <attvalue for="modularity_class" value="4"></attvalue>
        </attvalues>
        <viz:size value="22.857143"></viz:size>
        <viz:position x="458.9685" y="174.32674"></viz:position>
        <viz:color r="168" g="29" b="168"></viz:color>
      </node>
      <node id="58.0" label="Enjolras">
        <attvalues>
          <attvalue for="modularity_class" value="4"></attvalue>
        </attvalues>
        <viz:size value="28.800001"></viz:size>
        <viz:position x="357.96436" y="28.11681"></viz:position>
        <viz:color r="168" g="29" b="168"></viz:color>
      </node>
      <node id="59.0" label="Combeferre">
        <attvalues>
          <attvalue for="modularity_class" value="4"></attvalue>
        </attvalues>
        <viz:size value="22.857143"></viz:size>
        <viz:position x="449.3877" y="20.17911"></viz:position>
        <viz:color r="168" g="29" b="168"></viz:color>
      </node>
      <node id="60.0" label="Prouvaire">
        <attvalues>
          <attvalue for="modularity_class" value="4"></attvalue>
        </attvalues>
        <viz:size value="19.885715"></viz:size>
        <viz:position x="581.9541" y="55.80739"></viz:position>
        <viz:color r="168" g="29" b="168"></viz:color>
      </node>
      <node id="61.0" label="Feuilly">
        <attvalues>
          <attvalue for="modularity_class" value="4"></attvalue>
        </attvalues>
        <viz:size value="22.857143"></viz:size>
        <viz:position x="515.6843" y="34.794956"></viz:position>
        <viz:color r="168" g="29" b="168"></viz:color>
      </node>
      <node id="62.0" label="Courfeyrac">
        <attvalues>
          <attvalue for="modularity_class" value="4"></attvalue>
        </attvalues>
        <viz:size value="25.828571"></viz:size>
        <viz:position x="430.38712" y="89.849106"></viz:position>
        <viz:color r="168" g="29" b="168"></viz:color>
      </node>
      <node id="63.0" label="Bahorel">
        <attvalues>
          <attvalue for="modularity_class" value="4"></attvalue>
        </attvalues>
        <viz:size value="24.342857"></viz:size>
        <viz:position x="510.96954" y="109.83981"></viz:position>
        <viz:color r="168" g="29" b="168"></viz:color>
      </node>
      <node id="64.0" label="Bossuet">
        <attvalues>
          <attvalue for="modularity_class" value="4"></attvalue>
        </attvalues>
        <viz:size value="25.828571"></viz:size>
        <viz:position x="419.25424" y="-44.039658"></viz:position>
        <viz:color r="168" g="29" b="168"></viz:color>
      </node>
      <node id="65.0" label="Joly">
        <attvalues>
          <attvalue for="modularity_class" value="4"></attvalue>
        </attvalues>
        <viz:size value="24.342857"></viz:size>
        <viz:position x="506.10016" y="-38.80115"></viz:position>
        <viz:color r="168" g="29" b="168"></viz:color>
      </node>
      <node id="66.0" label="Grantaire">
        <attvalues>
          <attvalue for="modularity_class" value="4"></attvalue>
        </attvalues>
        <viz:size value="21.37143"></viz:size>
        <viz:position x="582.8304" y="-13.458508"></viz:position>
        <viz:color r="168" g="29" b="168"></viz:color>
      </node>
      <node id="67.0" label="MotherPlutarch">
        <attvalues>
          <attvalue for="modularity_class" value="4"></attvalue>
        </attvalues>
        <viz:size value="8.0"></viz:size>
        <viz:position x="519.98346" y="250.32373"></viz:position>
        <viz:color r="168" g="29" b="168"></viz:color>
      </node>
      <node id="68.0" label="Gueulemer">
        <attvalues>
          <attvalue for="modularity_class" value="5"></attvalue>
        </attvalues>
        <viz:size value="21.37143"></viz:size>
        <viz:position x="83.70317" y="259.42178"></viz:position>
        <viz:color r="168" g="29" b="29"></viz:color>
      </node>
      <node id="69.0" label="Babet">
        <attvalues>
          <attvalue for="modularity_class" value="5"></attvalue>
        </attvalues>
        <viz:size value="21.37143"></viz:size>
        <viz:position x="44.46425" y="203.434"></viz:position>
        <viz:color r="168" g="29" b="29"></viz:color>
      </node>
      <node id="70.0" label="Claquesous">
        <attvalues>
          <attvalue for="modularity_class" value="5"></attvalue>
        </attvalues>
        <viz:size value="21.37143"></viz:size>
        <viz:position x="139.56602" y="130.47406"></viz:position>
        <viz:color r="168" g="29" b="29"></viz:color>
      </node>
      <node id="71.0" label="Montparnasse">
        <attvalues>
          <attvalue for="modularity_class" value="5"></attvalue>
        </attvalues>
        <viz:size value="19.885715"></viz:size>
        <viz:position x="122.36463" y="199.81372"></viz:position>
        <viz:color r="168" g="29" b="29"></viz:color>
      </node>
      <node id="72.0" label="Toussaint">
        <attvalues>
          <attvalue for="modularity_class" value="3"></attvalue>
        </attvalues>
        <viz:size value="10.971429"></viz:size>
        <viz:position x="55.53666" y="-151.33974"></viz:position>
        <viz:color r="29" g="168" b="29"></viz:color>
      </node>
      <node id="73.0" label="Child1">
        <attvalues>
          <attvalue for="modularity_class" value="4"></attvalue>
        </attvalues>
        <viz:size value="9.485714"></viz:size>
        <viz:position x="400.73" y="293.1682"></viz:position>
        <viz:color r="168" g="29" b="168"></viz:color>
      </node>
      <node id="74.0" label="Child2">
        <attvalues>
          <attvalue for="modularity_class" value="4"></attvalue>
        </attvalues>
        <viz:size value="9.485714"></viz:size>
        <viz:position x="368.735" y="303.58234"></viz:position>
        <viz:color r="168" g="29" b="168"></viz:color>
      </node>
      <node id="75.0" label="Brujon">
        <attvalues>
          <attvalue for="modularity_class" value="5"></attvalue>
        </attvalues>
        <viz:size value="16.914286"></viz:size>
        <viz:position x="157.16617" y="276.0871"></viz:position>
        <viz:color r="168" g="29" b="29"></viz:color>
      </node>
      <node id="76.0" label="MmeHucheloup">
        <attvalues>
          <attvalue for="modularity_class" value="4"></attvalue>
        </attvalues>
        <viz:size value="16.914286"></viz:size>
        <viz:position x="578.738" y="120.79126"></viz:position>
        <viz:color r="168" g="29" b="168"></viz:color>
      </node>
    </nodes>
    <edges>
      <edge source="1.0" target="0.0">
        <attvalues>
          <attvalue for="weight" value="1.0"></attvalue>
        </attvalues>
      </edge>
      <edge source="2.0" target="0.0" weight="1.9333334">
        <attvalues>
          <attvalue for="weight" value="1.9333334"></attvalue>
        </attvalues>
      </edge>
      <edge source="3.0" target="0.0" weight="2.2">
        <attvalues>
          <attvalue for="weight" value="2.2"></attvalue>
        </attvalues>
      </edge>
      <edge source="3.0" target="2.0" weight="1.6666667">
        <attvalues>
          <attvalue for="weight" value="1.6666667"></attvalue>
        </attvalues>
      </edge>
      <edge source="4.0" target="0.0">
        <attvalues>
          <attvalue for="weight" value="1.0"></attvalue>
        </attvalues>
      </edge>
      <edge source="5.0" target="0.0">
        <attvalues>
          <attvalue for="weight" value="1.0"></attvalue>
        </attvalues>
      </edge>
      <edge source="6.0" target="0.0">
        <attvalues>
          <attvalue for="weight" value="1.0"></attvalue>
        </attvalues>
      </edge>
      <edge source="7.0" target="0.0">
        <attvalues>
          <attvalue for="weight" value="1.0"></attvalue>
        </attvalues>
      </edge>
      <edge source="8.0" target="0.0" weight="1.1333333">
        <attvalues>
          <attvalue for="weight" value="1.1333333"></attvalue>
        </attvalues>
      </edge>
      <edge source="9.0" target="0.0">
        <attvalues>
          <attvalue for="weight" value="1.0"></attvalue>
        </attvalues>
      </edge>
      <edge source="11.0" target="0.0" weight="1.5333333">
        <attvalues>
          <attvalue for="weight" value="1.5333333"></attvalue>
        </attvalues>
      </edge>
      <edge source="11.0" target="2.0" weight="1.2666667">
        <attvalues>
          <attvalue for="weight" value="1.2666667"></attvalue>
        </attvalues>
      </edge>
      <edge source="11.0" target="3.0" weight="1.2666667">
        <attvalues>
          <attvalue for="weight" value="1.2666667"></attvalue>
        </attvalues>
      </edge>
      <edge source="11.0" target="10.0">
        <attvalues>
          <attvalue for="weight" value="1.0"></attvalue>
        </attvalues>
      </edge>
      <edge source="12.0" target="11.0">
        <attvalues>
          <attvalue for="weight" value="1.0"></attvalue>
        </attvalues>
      </edge>
      <edge source="13.0" target="11.0">
        <attvalues>
          <attvalue for="weight" value="1.0"></attvalue>
        </attvalues>
      </edge>
      <edge source="14.0" target="11.0">
        <attvalues>
          <attvalue for="weight" value="1.0"></attvalue>
        </attvalues>
      </edge>
      <edge source="15.0" target="11.0">
        <attvalues>
          <attvalue for="weight" value="1.0"></attvalue>
        </attvalues>
      </edge>
      <edge source="17.0" target="16.0" weight="1.4">
        <attvalues>
          <attvalue for="weight" value="1.4"></attvalue>
        </attvalues>
      </edge>
      <edge source="18.0" target="16.0" weight="1.4">
        <attvalues>
          <attvalue for="weight" value="1.4"></attvalue>
        </attvalues>
      </edge>
      <edge source="18.0" target="17.0" weight="1.4">
        <attvalues>
          <attvalue for="weight" value="1.4"></attvalue>
        </attvalues>
      </edge>
      <edge source="19.0" target="16.0" weight="1.4">
        <attvalues>
          <attvalue for="weight" value="1.4"></attvalue>
        </attvalues>
      </edge>
      <edge source="19.0" target="17.0" weight="1.4">
        <attvalues>
          <attvalue for="weight" value="1.4"></attvalue>
        </attvalues>
      </edge>
      <edge source="19.0" target="18.0" weight="1.4">
        <attvalues>
          <attvalue for="weight" value="1.4"></attvalue>
        </attvalues>
      </edge>
      <edge source="20.0" target="16.0" weight="1.2666667">
        <attvalues>
          <attvalue for="weight" value="1.2666667"></attvalue>
        </attvalues>
      </edge>
      <edge source="20.0" target="17.0" weight="1.2666667">
        <attvalues>
          <attvalue for="weight" value="1.2666667"></attvalue>
        </attvalues>
      </edge>
      <edge source="20.0" target="18.0" weight="1.2666667">
        <attvalues>
          <attvalue for="weight" value="1.2666667"></attvalue>
        </attvalues>
      </edge>
      <edge source="20.0" target="19.0" weight="1.4">
        <attvalues>
          <attvalue for="weight" value="1.4"></attvalue>
        </attvalues>
      </edge>
      <edge source="21.0" target="16.0" weight="1.2666667">
        <attvalues>
          <attvalue for="weight" value="1.2666667"></attvalue>
        </attvalues>
      </edge>
      <edge source="21.0" target="17.0" weight="1.2666667">
        <attvalues>
          <attvalue for="weight" value="1.2666667"></attvalue>
        </attvalues>
      </edge>
      <edge source="21.0" target="18.0" weight="1.2666667">
        <attvalues>
          <attvalue for="weight" value="1.2666667"></attvalue>
        </attvalues>
      </edge>
      <edge source="21.0" target="19.0" weight="1.2666667">
        <attvalues>
          <attvalue for="weight" value="1.2666667"></attvalue>
        </attvalues>
      </edge>
      <edge source="21.0" target="20.0" weight="1.5333333">
        <attvalues>
          <attvalue for="weight" value="1.5333333"></attvalue>
        </attvalues>
      </edge>
      <edge source="22.0" target="16.0" weight="1.2666667">
        <attvalues>
          <attvalue for="weight" value="1.2666667"></attvalue>
        </attvalues>
      </edge>
      <edge source="22.0" target="17.0" weight="1.2666667">
        <attvalues>
          <attvalue for="weight" value="1.2666667"></attvalue>
        </attvalues>
      </edge>
      <edge source="22.0" target="18.0" weight="1.2666667">
        <attvalues>
          <attvalue for="weight" value="1.2666667"></attvalue>
        </attvalues>
      </edge>
      <edge source="22.0" target="19.0" weight="1.2666667">
        <attvalues>
          <attvalue for="weight" value="1.2666667"></attvalue>
        </attvalues>
      </edge>
      <edge source="22.0" target="20.0" weight="1.4">
        <attvalues>
          <attvalue for="weight" value="1.4"></attvalue>
        </attvalues>
      </edge>
      <edge source="22.0" target="21.0" weight="1.4">
        <attvalues>
          <attvalue for="weight" value="1.4"></attvalue>
        </attvalues>
      </edge>
      <edge source="23.0" target="11.0" weight="2.0666666">
        <attvalues>
          <attvalue for="weight" value="2.0666666"></attvalue>
        </attvalues>
      </edge>
      <edge source="23.0" target="12.0" weight="1.1333333">
        <attvalues>
          <attvalue for="weight" value="1.1333333"></attvalue>
        </attvalues>
      </edge>
      <edge source="23.0" target="16.0" weight="1.2666667">
        <attvalues>
          <attvalue for="weight" value="1.2666667"></attvalue>
        </attvalues>
      </edge>
      <edge source="23.0" target="17.0" weight="1.2666667">
        <attvalues>
          <attvalue for="weight" value="1.2666667"></attvalue>
        </attvalues>
      </edge>
      <edge source="23.0" target="18.0" weight="1.2666667">
        <attvalues>
          <attvalue for="weight" value="1.2666667"></attvalue>
        </attvalues>
      </edge>
      <edge source="23.0" target="19.0" weight="1.2666667">
        <attvalues>
          <attvalue for="weight" value="1.2666667"></attvalue>
        </attvalues>
      </edge>
      <edge source="23.0" target="20.0" weight="1.4">
        <attvalues>
          <attvalue for="weight" value="1.4"></attvalue>
        </attvalues>
      </edge>
      <edge source="23.0" target="21.0" weight="1.4">
        <attvalues>
          <attvalue for="weight" value="1.4"></attvalue>
        </attvalues>
      </edge>
      <edge source="23.0" target="22.0" weight="1.4">
        <attvalues>
          <attvalue for="weight" value="1.4"></attvalue>
        </attvalues>
      </edge>
      <edge source="24.0" target="11.0" weight="1.8">
        <attvalues>
          <attvalue for="weight" value="1.8"></attvalue>
        </attvalues>
      </edge>
      <edge source="24.0" target="23.0" weight="1.1333333">
        <attvalues>
          <attvalue for="weight" value="1.1333333"></attvalue>
        </attvalues>
      </edge>
      <edge source="25.0" target="11.0" weight="2.4666667">
        <attvalues>
          <attvalue for="weight" value="2.4666667"></attvalue>
        </attvalues>
      </edge>
      <edge source="25.0" target="23.0">
        <attvalues>
          <attvalue for="weight" value="1.0"></attvalue>
        </attvalues>
      </edge>
      <edge source="25.0" target="24.0" weight="2.6">
        <attvalues>
          <attvalue for="weight" value="2.6"></attvalue>
        </attvalues>
      </edge>
      <edge source="26.0" target="11.0" weight="5.0">
        <attvalues>
          <attvalue for="weight" value="5.0"></attvalue>
        </attvalues>
      </edge>
      <edge source="26.0" target="16.0">
        <attvalues>
          <attvalue for="weight" value="1.0"></attvalue>
        </attvalues>
      </edge>
      <edge source="26.0" target="24.0" weight="1.4">
        <attvalues>
          <attvalue for="weight" value="1.4"></attvalue>
        </attvalues>
      </edge>
      <edge source="26.0" target="25.0">
        <attvalues>
          <attvalue for="weight" value="1.0"></attvalue>
        </attvalues>
      </edge>
      <edge source="27.0" target="11.0" weight="3.1333334">
        <attvalues>
          <attvalue for="weight" value="3.1333334"></attvalue>
        </attvalues>
      </edge>
      <edge source="27.0" target="23.0" weight="1.5333333">
        <attvalues>
          <attvalue for="weight" value="1.5333333"></attvalue>
        </attvalues>
      </edge>
      <edge source="27.0" target="24.0">
        <attvalues>
          <attvalue for="weight" value="1.0"></attvalue>
        </attvalues>
      </edge>
      <edge source="27.0" target="25.0" weight="1.5333333">
        <attvalues>
          <attvalue for="weight" value="1.5333333"></attvalue>
        </attvalues>
      </edge>
      <edge source="27.0" target="26.0">
        <attvalues>
          <attvalue for="weight" value="1.0"></attvalue>
        </attvalues>
      </edge>
      <edge source="28.0" target="11.0" weight="1.9333334">
        <attvalues>
          <attvalue for="weight" value="1.9333334"></attvalue>
        </attvalues>
      </edge>
      <edge source="28.0" target="27.0">
        <attvalues>
          <attvalue for="weight" value="1.0"></attvalue>
        </attvalues>
      </edge>
      <edge source="29.0" target="11.0" weight="1.1333333">
        <attvalues>
          <attvalue for="weight" value="1.1333333"></attvalue>
        </attvalues>
      </edge>
      <edge source="29.0" target="23.0">
        <attvalues>
          <attvalue for="weight" value="1.0"></attvalue>
        </attvalues>
      </edge>
      <edge source="29.0" target="27.0">
        <attvalues>
          <attvalue for="weight" value="1.0"></attvalue>
        </attvalues>
      </edge>
      <edge source="30.0" target="23.0">
        <attvalues>
          <attvalue for="weight" value="1.0"></attvalue>
        </attvalues>
      </edge>
      <edge source="31.0" target="11.0" weight="1.2666667">
        <attvalues>
          <attvalue for="weight" value="1.2666667"></attvalue>
        </attvalues>
      </edge>
      <edge source="31.0" target="23.0" weight="1.1333333">
        <attvalues>
          <attvalue for="weight" value="1.1333333"></attvalue>
        </attvalues>
      </edge>
      <edge source="31.0" target="27.0">
        <attvalues>
          <attvalue for="weight" value="1.0"></attvalue>
        </attvalues>
      </edge>
      <edge source="31.0" target="30.0" weight="1.1333333">
        <attvalues>
          <attvalue for="weight" value="1.1333333"></attvalue>
        </attvalues>
      </edge>
      <edge source="32.0" target="11.0">
        <attvalues>
          <attvalue for="weight" value="1.0"></attvalue>
        </attvalues>
      </edge>
      <edge source="33.0" target="11.0" weight="1.1333333">
        <attvalues>
          <attvalue for="weight" value="1.1333333"></attvalue>
        </attvalues>
      </edge>
      <edge source="33.0" target="27.0">
        <attvalues>
          <attvalue for="weight" value="1.0"></attvalue>
        </attvalues>
      </edge>
      <edge source="34.0" target="11.0" weight="1.2666667">
        <attvalues>
          <attvalue for="weight" value="1.2666667"></attvalue>
        </attvalues>
      </edge>
      <edge source="34.0" target="29.0" weight="1.1333333">
        <attvalues>
          <attvalue for="weight" value="1.1333333"></attvalue>
        </attvalues>
      </edge>
      <edge source="35.0" target="11.0" weight="1.2666667">
        <attvalues>
          <attvalue for="weight" value="1.2666667"></attvalue>
        </attvalues>
      </edge>
      <edge source="35.0" target="29.0" weight="1.1333333">
        <attvalues>
          <attvalue for="weight" value="1.1333333"></attvalue>
        </attvalues>
      </edge>
      <edge source="35.0" target="34.0" weight="1.2666667">
        <attvalues>
          <attvalue for="weight" value="1.2666667"></attvalue>
        </attvalues>
      </edge>
      <edge source="36.0" target="11.0" weight="1.1333333">
        <attvalues>
          <attvalue for="weight" value="1.1333333"></attvalue>
        </attvalues>
      </edge>
      <edge source="36.0" target="29.0">
        <attvalues>
          <attvalue for="weight" value="1.0"></attvalue>
        </attvalues>
      </edge>
      <edge source="36.0" target="34.0" weight="1.1333333">
        <attvalues>
          <attvalue for="weight" value="1.1333333"></attvalue>
        </attvalues>
      </edge>
      <edge source="36.0" target="35.0" weight="1.1333333">
        <attvalues>
          <attvalue for="weight" value="1.1333333"></attvalue>
        </attvalues>
      </edge>
      <edge source="37.0" target="11.0" weight="1.1333333">
        <attvalues>
          <attvalue for="weight" value="1.1333333"></attvalue>
        </attvalues>
      </edge>
      <edge source="37.0" target="29.0">
        <attvalues>
          <attvalue for="weight" value="1.0"></attvalue>
        </attvalues>
      </edge>
      <edge source="37.0" target="34.0" weight="1.1333333">
        <attvalues>
          <attvalue for="weight" value="1.1333333"></attvalue>
        </attvalues>
      </edge>
      <edge source="37.0" target="35.0" weight="1.1333333">
        <attvalues>
          <attvalue for="weight" value="1.1333333"></attvalue>
        </attvalues>
      </edge>
      <edge source="37.0" target="36.0" weight="1.1333333">
        <attvalues>
          <attvalue for="weight" value="1.1333333"></attvalue>
        </attvalues>
      </edge>
      <edge source="38.0" target="11.0" weight="1.1333333">
        <attvalues>
          <attvalue for="weight" value="1.1333333"></attvalue>
        </attvalues>
      </edge>
      <edge source="38.0" target="29.0">
        <attvalues>
          <attvalue for="weight" value="1.0"></attvalue>
        </attvalues>
      </edge>
      <edge source="38.0" target="34.0" weight="1.1333333">
        <attvalues>
          <attvalue for="weight" value="1.1333333"></attvalue>
        </attvalues>
      </edge>
      <edge source="38.0" target="35.0" weight="1.1333333">
        <attvalues>
          <attvalue for="weight" value="1.1333333"></attvalue>
        </attvalues>
      </edge>
      <edge source="38.0" target="36.0" weight="1.1333333">
        <attvalues>
          <attvalue for="weight" value="1.1333333"></attvalue>
        </attvalues>
      </edge>
      <edge source="38.0" target="37.0" weight="1.1333333">
        <attvalues>
          <attvalue for="weight" value="1.1333333"></attvalue>
        </attvalues>
      </edge>
      <edge source="39.0" target="25.0">
        <attvalues>
          <attvalue for="weight" value="1.0"></attvalue>
        </attvalues>
      </edge>
      <edge source="40.0" target="25.0">
        <attvalues>
          <attvalue for="weight" value="1.0"></attvalue>
        </attvalues>
      </edge>
      <edge source="41.0" target="24.0" weight="1.1333333">
        <attvalues>
          <attvalue for="weight" value="1.1333333"></attvalue>
        </attvalues>
      </edge>
      <edge source="41.0" target="25.0" weight="1.2666667">
        <attvalues>
          <attvalue for="weight" value="1.2666667"></attvalue>
        </attvalues>
      </edge>
      <edge source="42.0" target="24.0">
        <attvalues>
          <attvalue for="weight" value="1.0"></attvalue>
        </attvalues>
      </edge>
      <edge source="42.0" target="25.0" weight="1.1333333">
        <attvalues>
          <attvalue for="weight" value="1.1333333"></attvalue>
        </attvalues>
      </edge>
      <edge source="42.0" target="41.0" weight="1.1333333">
        <attvalues>
          <attvalue for="weight" value="1.1333333"></attvalue>
        </attvalues>
      </edge>
      <edge source="43.0" target="11.0" weight="1.2666667">
        <attvalues>
          <attvalue for="weight" value="1.2666667"></attvalue>
        </attvalues>
      </edge>
      <edge source="43.0" target="26.0">
        <attvalues>
          <attvalue for="weight" value="1.0"></attvalue>
        </attvalues>
      </edge>
      <edge source="43.0" target="27.0">
        <attvalues>
          <attvalue for="weight" value="1.0"></attvalue>
        </attvalues>
      </edge>
      <edge source="44.0" target="11.0">
        <attvalues>
          <attvalue for="weight" value="1.0"></attvalue>
        </attvalues>
      </edge>
      <edge source="44.0" target="28.0" weight="1.2666667">
        <attvalues>
          <attvalue for="weight" value="1.2666667"></attvalue>
        </attvalues>
      </edge>
      <edge source="45.0" target="28.0" weight="1.1333333">
        <attvalues>
          <attvalue for="weight" value="1.1333333"></attvalue>
        </attvalues>
      </edge>
      <edge source="47.0" target="46.0">
        <attvalues>
          <attvalue for="weight" value="1.0"></attvalue>
        </attvalues>
      </edge>
      <edge source="48.0" target="11.0">
        <attvalues>
          <attvalue for="weight" value="1.0"></attvalue>
        </attvalues>
      </edge>
      <edge source="48.0" target="25.0">
        <attvalues>
          <attvalue for="weight" value="1.0"></attvalue>
        </attvalues>
      </edge>
      <edge source="48.0" target="27.0">
        <attvalues>
          <attvalue for="weight" value="1.0"></attvalue>
        </attvalues>
      </edge>
      <edge source="48.0" target="47.0" weight="1.1333333">
        <attvalues>
          <attvalue for="weight" value="1.1333333"></attvalue>
        </attvalues>
      </edge>
      <edge source="49.0" target="11.0" weight="1.1333333">
        <attvalues>
          <attvalue for="weight" value="1.1333333"></attvalue>
        </attvalues>
      </edge>
      <edge source="49.0" target="26.0" weight="1.2666667">
        <attvalues>
          <attvalue for="weight" value="1.2666667"></attvalue>
        </attvalues>
      </edge>
      <edge source="50.0" target="24.0">
        <attvalues>
          <attvalue for="weight" value="1.0"></attvalue>
        </attvalues>
      </edge>
      <edge source="50.0" target="49.0">
        <attvalues>
          <attvalue for="weight" value="1.0"></attvalue>
        </attvalues>
      </edge>
      <edge source="51.0" target="11.0" weight="1.1333333">
        <attvalues>
          <attvalue for="weight" value="1.1333333"></attvalue>
        </attvalues>
      </edge>
      <edge source="51.0" target="26.0" weight="1.1333333">
        <attvalues>
          <attvalue for="weight" value="1.1333333"></attvalue>
        </attvalues>
      </edge>
      <edge source="51.0" target="49.0" weight="2.0666666">
        <attvalues>
          <attvalue for="weight" value="2.0666666"></attvalue>
        </attvalues>
      </edge>
      <edge source="52.0" target="39.0">
        <attvalues>
          <attvalue for="weight" value="1.0"></attvalue>
        </attvalues>
      </edge>
      <edge source="52.0" target="51.0">
        <attvalues>
          <attvalue for="weight" value="1.0"></attvalue>
        </attvalues>
      </edge>
      <edge source="53.0" target="51.0">
        <attvalues>
          <attvalue for="weight" value="1.0"></attvalue>
        </attvalues>
      </edge>
      <edge source="54.0" target="26.0">
        <attvalues>
          <attvalue for="weight" value="1.0"></attvalue>
        </attvalues>
      </edge>
      <edge source="54.0" target="49.0">
        <attvalues>
          <attvalue for="weight" value="1.0"></attvalue>
        </attvalues>
      </edge>
      <edge source="54.0" target="51.0" weight="1.1333333">
        <attvalues>
          <attvalue for="weight" value="1.1333333"></attvalue>
        </attvalues>
      </edge>
      <edge source="55.0" target="11.0" weight="3.4">
        <attvalues>
          <attvalue for="weight" value="3.4"></attvalue>
        </attvalues>
      </edge>
      <edge source="55.0" target="16.0">
        <attvalues>
          <attvalue for="weight" value="1.0"></attvalue>
        </attvalues>
      </edge>
      <edge source="55.0" target="25.0" weight="1.1333333">
        <attvalues>
          <attvalue for="weight" value="1.1333333"></attvalue>
        </attvalues>
      </edge>
      <edge source="55.0" target="26.0" weight="3.6666667">
        <attvalues>
          <attvalue for="weight" value="3.6666667"></attvalue>
        </attvalues>
      </edge>
      <edge source="55.0" target="39.0">
        <attvalues>
          <attvalue for="weight" value="1.0"></attvalue>
        </attvalues>
      </edge>
      <edge source="55.0" target="41.0" weight="1.5333333">
        <attvalues>
          <attvalue for="weight" value="1.5333333"></attvalue>
        </attvalues>
      </edge>
      <edge source="55.0" target="48.0" weight="1.4">
        <attvalues>
          <attvalue for="weight" value="1.4"></attvalue>
        </attvalues>
      </edge>
      <edge source="55.0" target="49.0" weight="2.4666667">
        <attvalues>
          <attvalue for="weight" value="2.4666667"></attvalue>
        </attvalues>
      </edge>
      <edge source="55.0" target="51.0" weight="1.6666667">
        <attvalues>
          <attvalue for="weight" value="1.6666667"></attvalue>
        </attvalues>
      </edge>
      <edge source="55.0" target="54.0">
        <attvalues>
          <attvalue for="weight" value="1.0"></attvalue>
        </attvalues>
      </edge>
      <edge source="56.0" target="49.0">
        <attvalues>
          <attvalue for="weight" value="1.0"></attvalue>
        </attvalues>
      </edge>
      <edge source="56.0" target="55.0">
        <attvalues>
          <attvalue for="weight" value="1.0"></attvalue>
        </attvalues>
      </edge>
      <edge source="57.0" target="41.0">
        <attvalues>
          <attvalue for="weight" value="1.0"></attvalue>
        </attvalues>
      </edge>
      <edge source="57.0" target="48.0">
        <attvalues>
          <attvalue for="weight" value="1.0"></attvalue>
        </attvalues>
      </edge>
      <edge source="57.0" target="55.0">
        <attvalues>
          <attvalue for="weight" value="1.0"></attvalue>
        </attvalues>
      </edge>
      <edge source="58.0" target="11.0" weight="1.4">
        <attvalues>
          <attvalue for="weight" value="1.4"></attvalue>
        </attvalues>
      </edge>
      <edge source="58.0" target="27.0" weight="1.6666667">
        <attvalues>
          <attvalue for="weight" value="1.6666667"></attvalue>
        </attvalues>
      </edge>
      <edge source="58.0" target="48.0" weight="1.8">
        <attvalues>
          <attvalue for="weight" value="1.8"></attvalue>
        </attvalues>
      </edge>
      <edge source="58.0" target="55.0" weight="1.8">
        <attvalues>
          <attvalue for="weight" value="1.8"></attvalue>
        </attvalues>
      </edge>
      <edge source="58.0" target="57.0">
        <attvalues>
          <attvalue for="weight" value="1.0"></attvalue>
        </attvalues>
      </edge>
      <edge source="59.0" target="48.0" weight="1.6666667">
        <attvalues>
          <attvalue for="weight" value="1.6666667"></attvalue>
        </attvalues>
      </edge>
      <edge source="59.0" target="55.0" weight="1.5333333">
        <attvalues>
          <attvalue for="weight" value="1.5333333"></attvalue>
        </attvalues>
      </edge>
      <edge source="59.0" target="57.0" weight="1.1333333">
        <attvalues>
          <attvalue for="weight" value="1.1333333"></attvalue>
        </attvalues>
      </edge>
      <edge source="59.0" target="58.0" weight="2.8666668">
        <attvalues>
          <attvalue for="weight" value="2.8666668"></attvalue>
        </attvalues>
      </edge>
      <edge source="60.0" target="48.0">
        <attvalues>
          <attvalue for="weight" value="1.0"></attvalue>
        </attvalues>
      </edge>
      <edge source="60.0" target="58.0" weight="1.4">
        <attvalues>
          <attvalue for="weight" value="1.4"></attvalue>
        </attvalues>
      </edge>
      <edge source="60.0" target="59.0" weight="1.1333333">
        <attvalues>
          <attvalue for="weight" value="1.1333333"></attvalue>
        </attvalues>
      </edge>
      <edge source="61.0" target="48.0" weight="1.1333333">
        <attvalues>
          <attvalue for="weight" value="1.1333333"></attvalue>
        </attvalues>
      </edge>
      <edge source="61.0" target="55.0">
        <attvalues>
          <attvalue for="weight" value="1.0"></attvalue>
        </attvalues>
      </edge>
      <edge source="61.0" target="57.0">
        <attvalues>
          <attvalue for="weight" value="1.0"></attvalue>
        </attvalues>
      </edge>
      <edge source="61.0" target="58.0" weight="1.6666667">
        <attvalues>
          <attvalue for="weight" value="1.6666667"></attvalue>
        </attvalues>
      </edge>
      <edge source="61.0" target="59.0" weight="1.5333333">
        <attvalues>
          <attvalue for="weight" value="1.5333333"></attvalue>
        </attvalues>
      </edge>
      <edge source="61.0" target="60.0" weight="1.1333333">
        <attvalues>
          <attvalue for="weight" value="1.1333333"></attvalue>
        </attvalues>
      </edge>
      <edge source="62.0" target="41.0">
        <attvalues>
          <attvalue for="weight" value="1.0"></attvalue>
        </attvalues>
      </edge>
      <edge source="62.0" target="48.0" weight="1.8">
        <attvalues>
          <attvalue for="weight" value="1.8"></attvalue>
        </attvalues>
      </edge>
      <edge source="62.0" target="55.0" weight="2.0666666">
        <attvalues>
          <attvalue for="weight" value="2.0666666"></attvalue>
        </attvalues>
      </edge>
      <edge source="62.0" target="57.0" weight="1.1333333">
        <attvalues>
          <attvalue for="weight" value="1.1333333"></attvalue>
        </attvalues>
      </edge>
      <edge source="62.0" target="58.0" weight="3.1333334">
        <attvalues>
          <attvalue for="weight" value="3.1333334"></attvalue>
        </attvalues>
      </edge>
      <edge source="62.0" target="59.0" weight="2.6">
        <attvalues>
          <attvalue for="weight" value="2.6"></attvalue>
        </attvalues>
      </edge>
      <edge source="62.0" target="60.0" weight="1.2666667">
        <attvalues>
          <attvalue for="weight" value="1.2666667"></attvalue>
        </attvalues>
      </edge>
      <edge source="62.0" target="61.0" weight="1.6666667">
        <attvalues>
          <attvalue for="weight" value="1.6666667"></attvalue>
        </attvalues>
      </edge>
      <edge source="63.0" target="48.0" weight="1.5333333">
        <attvalues>
          <attvalue for="weight" value="1.5333333"></attvalue>
        </attvalues>
      </edge>
      <edge source="63.0" target="55.0">
        <attvalues>
          <attvalue for="weight" value="1.0"></attvalue>
        </attvalues>
      </edge>
      <edge source="63.0" target="57.0" weight="1.1333333">
        <attvalues>
          <attvalue for="weight" value="1.1333333"></attvalue>
        </attvalues>
      </edge>
      <edge source="63.0" target="58.0" weight="1.4">
        <attvalues>
          <attvalue for="weight" value="1.4"></attvalue>
        </attvalues>
      </edge>
      <edge source="63.0" target="59.0" weight="1.5333333">
        <attvalues>
          <attvalue for="weight" value="1.5333333"></attvalue>
        </attvalues>
      </edge>
      <edge source="63.0" target="60.0" weight="1.1333333">
        <attvalues>
          <attvalue for="weight" value="1.1333333"></attvalue>
        </attvalues>
      </edge>
      <edge source="63.0" target="61.0" weight="1.2666667">
        <attvalues>
          <attvalue for="weight" value="1.2666667"></attvalue>
        </attvalues>
      </edge>
      <edge source="63.0" target="62.0" weight="1.6666667">
        <attvalues>
          <attvalue for="weight" value="1.6666667"></attvalue>
        </attvalues>
      </edge>
      <edge source="64.0" target="11.0">
        <attvalues>
          <attvalue for="weight" value="1.0"></attvalue>
        </attvalues>
      </edge>
      <edge source="64.0" target="48.0" weight="1.5333333">
        <attvalues>
          <attvalue for="weight" value="1.5333333"></attvalue>
        </attvalues>
      </edge>
      <edge source="64.0" target="55.0" weight="1.5333333">
        <attvalues>
          <attvalue for="weight" value="1.5333333"></attvalue>
        </attvalues>
      </edge>
      <edge source="64.0" target="57.0">
        <attvalues>
          <attvalue for="weight" value="1.0"></attvalue>
        </attvalues>
      </edge>
      <edge source="64.0" target="58.0" weight="2.2">
        <attvalues>
          <attvalue for="weight" value="2.2"></attvalue>
        </attvalues>
      </edge>
      <edge source="64.0" target="59.0" weight="2.0666666">
        <attvalues>
          <attvalue for="weight" value="2.0666666"></attvalue>
        </attvalues>
      </edge>
      <edge source="64.0" target="60.0" weight="1.1333333">
        <attvalues>
          <attvalue for="weight" value="1.1333333"></attvalue>
        </attvalues>
      </edge>
      <edge source="64.0" target="61.0" weight="1.6666667">
        <attvalues>
          <attvalue for="weight" value="1.6666667"></attvalue>
        </attvalues>
      </edge>
      <edge source="64.0" target="62.0" weight="2.4666667">
        <attvalues>
          <attvalue for="weight" value="2.4666667"></attvalue>
        </attvalues>
      </edge>
      <edge source="64.0" target="63.0" weight="1.4">
        <attvalues>
          <attvalue for="weight" value="1.4"></attvalue>
        </attvalues>
      </edge>
      <edge source="65.0" target="48.0" weight="1.2666667">
        <attvalues>
          <attvalue for="weight" value="1.2666667"></attvalue>
        </attvalues>
      </edge>
      <edge source="65.0" target="55.0" weight="1.1333333">
        <attvalues>
          <attvalue for="weight" value="1.1333333"></attvalue>
        </attvalues>
      </edge>
      <edge source="65.0" target="57.0">
        <attvalues>
          <attvalue for="weight" value="1.0"></attvalue>
        </attvalues>
      </edge>
      <edge source="65.0" target="58.0" weight="1.5333333">
        <attvalues>
          <attvalue for="weight" value="1.5333333"></attvalue>
        </attvalues>
      </edge>
      <edge source="65.0" target="59.0" weight="1.5333333">
        <attvalues>
          <attvalue for="weight" value="1.5333333"></attvalue>
        </attvalues>
      </edge>
      <edge source="65.0" target="60.0" weight="1.1333333">
        <attvalues>
          <attvalue for="weight" value="1.1333333"></attvalue>
        </attvalues>
      </edge>
      <edge source="65.0" target="61.0" weight="1.5333333">
        <attvalues>
          <attvalue for="weight" value="1.5333333"></attvalue>
        </attvalues>
      </edge>
      <edge source="65.0" target="62.0" weight="1.5333333">
        <attvalues>
          <attvalue for="weight" value="1.5333333"></attvalue>
        </attvalues>
      </edge>
      <edge source="65.0" target="63.0" weight="1.5333333">
        <attvalues>
          <attvalue for="weight" value="1.5333333"></attvalue>
        </attvalues>
      </edge>
      <edge source="65.0" target="64.0" weight="1.8">
        <attvalues>
          <attvalue for="weight" value="1.8"></attvalue>
        </attvalues>
      </edge>
      <edge source="66.0" target="48.0">
        <attvalues>
          <attvalue for="weight" value="1.0"></attvalue>
        </attvalues>
      </edge>
      <edge source="66.0" target="58.0" weight="1.2666667">
        <attvalues>
          <attvalue for="weight" value="1.2666667"></attvalue>
        </attvalues>
      </edge>
      <edge source="66.0" target="59.0">
        <attvalues>
          <attvalue for="weight" value="1.0"></attvalue>
        </attvalues>
      </edge>
      <edge source="66.0" target="60.0">
        <attvalues>
          <attvalue for="weight" value="1.0"></attvalue>
        </attvalues>
      </edge>
      <edge source="66.0" target="61.0">
        <attvalues>
          <attvalue for="weight" value="1.0"></attvalue>
        </attvalues>
      </edge>
      <edge source="66.0" target="62.0" weight="1.1333333">
        <attvalues>
          <attvalue for="weight" value="1.1333333"></attvalue>
        </attvalues>
      </edge>
      <edge source="66.0" target="63.0">
        <attvalues>
          <attvalue for="weight" value="1.0"></attvalue>
        </attvalues>
      </edge>
      <edge source="66.0" target="64.0" weight="1.2666667">
        <attvalues>
          <attvalue for="weight" value="1.2666667"></attvalue>
        </attvalues>
      </edge>
      <edge source="66.0" target="65.0" weight="1.1333333">
        <attvalues>
          <attvalue for="weight" value="1.1333333"></attvalue>
        </attvalues>
      </edge>
      <edge source="67.0" target="57.0" weight="1.2666667">
        <attvalues>
          <attvalue for="weight" value="1.2666667"></attvalue>
        </attvalues>
      </edge>
      <edge source="68.0" target="11.0">
        <attvalues>
          <attvalue for="weight" value="1.0"></attvalue>
        </attvalues>
      </edge>
      <edge source="68.0" target="24.0">
        <attvalues>
          <attvalue for="weight" value="1.0"></attvalue>
        </attvalues>
      </edge>
      <edge source="68.0" target="25.0" weight="1.5333333">
        <attvalues>
          <attvalue for="weight" value="1.5333333"></attvalue>
        </attvalues>
      </edge>
      <edge source="68.0" target="27.0">
        <attvalues>
          <attvalue for="weight" value="1.0"></attvalue>
        </attvalues>
      </edge>
      <edge source="68.0" target="41.0">
        <attvalues>
          <attvalue for="weight" value="1.0"></attvalue>
        </attvalues>
      </edge>
      <edge source="68.0" target="48.0">
        <attvalues>
          <attvalue for="weight" value="1.0"></attvalue>
        </attvalues>
      </edge>
      <edge source="69.0" target="11.0">
        <attvalues>
          <attvalue for="weight" value="1.0"></attvalue>
        </attvalues>
      </edge>
      <edge source="69.0" target="24.0">
        <attvalues>
          <attvalue for="weight" value="1.0"></attvalue>
        </attvalues>
      </edge>
      <edge source="69.0" target="25.0" weight="1.6666667">
        <attvalues>
          <attvalue for="weight" value="1.6666667"></attvalue>
        </attvalues>
      </edge>
      <edge source="69.0" target="27.0" weight="1.1333333">
        <attvalues>
          <attvalue for="weight" value="1.1333333"></attvalue>
        </attvalues>
      </edge>
      <edge source="69.0" target="41.0">
        <attvalues>
          <attvalue for="weight" value="1.0"></attvalue>
        </attvalues>
      </edge>
      <edge source="69.0" target="48.0">
        <attvalues>
          <attvalue for="weight" value="1.0"></attvalue>
        </attvalues>
      </edge>
      <edge source="69.0" target="68.0" weight="1.6666667">
        <attvalues>
          <attvalue for="weight" value="1.6666667"></attvalue>
        </attvalues>
      </edge>
      <edge source="70.0" target="11.0">
        <attvalues>
          <attvalue for="weight" value="1.0"></attvalue>
        </attvalues>
      </edge>
      <edge source="70.0" target="24.0">
        <attvalues>
          <attvalue for="weight" value="1.0"></attvalue>
        </attvalues>
      </edge>
      <edge source="70.0" target="25.0" weight="1.4">
        <attvalues>
          <attvalue for="weight" value="1.4"></attvalue>
        </attvalues>
      </edge>
      <edge source="70.0" target="27.0">
        <attvalues>
          <attvalue for="weight" value="1.0"></attvalue>
        </attvalues>
      </edge>
      <edge source="70.0" target="41.0">
        <attvalues>
          <attvalue for="weight" value="1.0"></attvalue>
        </attvalues>
      </edge>
      <edge source="70.0" target="58.0">
        <attvalues>
          <attvalue for="weight" value="1.0"></attvalue>
        </attvalues>
      </edge>
      <edge source="70.0" target="68.0" weight="1.4">
        <attvalues>
          <attvalue for="weight" value="1.4"></attvalue>
        </attvalues>
      </edge>
      <edge source="70.0" target="69.0" weight="1.4">
        <attvalues>
          <attvalue for="weight" value="1.4"></attvalue>
        </attvalues>
      </edge>
      <edge source="71.0" target="11.0">
        <attvalues>
          <attvalue for="weight" value="1.0"></attvalue>
        </attvalues>
      </edge>
      <edge source="71.0" target="25.0">
        <attvalues>
          <attvalue for="weight" value="1.0"></attvalue>
        </attvalues>
      </edge>
      <edge source="71.0" target="27.0">
        <attvalues>
          <attvalue for="weight" value="1.0"></attvalue>
        </attvalues>
      </edge>
      <edge source="71.0" target="41.0">
        <attvalues>
          <attvalue for="weight" value="1.0"></attvalue>
        </attvalues>
      </edge>
      <edge source="71.0" target="48.0">
        <attvalues>
          <attvalue for="weight" value="1.0"></attvalue>
        </attvalues>
      </edge>
      <edge source="71.0" target="68.0" weight="1.1333333">
        <attvalues>
          <attvalue for="weight" value="1.1333333"></attvalue>
        </attvalues>
      </edge>
      <edge source="71.0" target="69.0" weight="1.1333333">
        <attvalues>
          <attvalue for="weight" value="1.1333333"></attvalue>
        </attvalues>
      </edge>
      <edge source="71.0" target="70.0" weight="1.1333333">
        <attvalues>
          <attvalue for="weight" value="1.1333333"></attvalue>
        </attvalues>
      </edge>
      <edge source="72.0" target="11.0">
        <attvalues>
          <attvalue for="weight" value="1.0"></attvalue>
        </attvalues>
      </edge>
      <edge source="72.0" target="26.0" weight="1.1333333">
        <attvalues>
          <attvalue for="weight" value="1.1333333"></attvalue>
        </attvalues>
      </edge>
      <edge source="72.0" target="27.0">
        <attvalues>
          <attvalue for="weight" value="1.0"></attvalue>
        </attvalues>
      </edge>
      <edge source="73.0" target="48.0" weight="1.1333333">
        <attvalues>
          <attvalue for="weight" value="1.1333333"></attvalue>
        </attvalues>
      </edge>
      <edge source="74.0" target="48.0" weight="1.1333333">
        <attvalues>
          <attvalue for="weight" value="1.1333333"></attvalue>
        </attvalues>
      </edge>
      <edge source="74.0" target="73.0" weight="1.2666667">
        <attvalues>
          <attvalue for="weight" value="1.2666667"></attvalue>
        </attvalues>
      </edge>
      <edge source="75.0" target="25.0" weight="1.2666667">
        <attvalues>
          <attvalue for="weight" value="1.2666667"></attvalue>
        </attvalues>
      </edge>
      <edge source="75.0" target="41.0">
        <attvalues>
          <attvalue for="weight" value="1.0"></attvalue>
        </attvalues>
      </edge>
      <edge source="75.0" target="48.0">
        <attvalues>
          <attvalue for="weight" value="1.0"></attvalue>
        </attvalues>
      </edge>
      <edge source="75.0" target="68.0" weight="1.2666667">
        <attvalues>
          <attvalue for="weight" value="1.2666667"></attvalue>
        </attvalues>
      </edge>
      <edge source="75.0" target="69.0" weight="1.2666667">
        <attvalues>
          <attvalue for="weight" value="1.2666667"></attvalue>
        </attvalues>
      </edge>
      <edge source="75.0" target="70.0">
        <attvalues>
          <attvalue for="weight" value="1.0"></attvalue>
        </attvalues>
      </edge>
      <edge source="75.0" target="71.0">
        <attvalues>
          <attvalue for="weight" value="1.0"></attvalue>
        </attvalues>
      </edge>
      <edge source="76.0" target="48.0">
        <attvalues>
          <attvalue for="weight" value="1.0"></attvalue>
        </attvalues>
      </edge>
      <edge source="76.0" target="58.0">
        <attvalues>
          <attvalue for="weight" value="1.0"></attvalue>
        </attvalues>
      </edge>
      <edge source="76.0" target="62.0">
        <attvalues>
          <attvalue for="weight" value="1.0"></attvalue>
        </attvalues>
      </edge>
      <edge source="76.0" target="63.0">
        <attvalues>
          <attvalue for="weight" value="1.0"></attvalue>
        </attvalues>
      </edge>
      <edge source="76.0" target="64.0">
        <attvalues>
          <attvalue for="weight" value="1.0"></attvalue>
        </attvalues>
      </edge>
      <edge source="76.0" target="65.0">
        <attvalues>
          <attvalue for="weight" value="1.0"></attvalue>
        </attvalues>
      </edge>
      <edge source="76.0" target="66.0">
        <attvalues>
          <attvalue for="weight" value="1.0"></attvalue>
        </attvalues>
      </edge>
    </edges>
  </graph>
</gexf>
